MyLabJournal - Automated Maschine Learning with H2O
…
# Load Data data definitions

path_data_definitions <- "data_definitions.xlsx"
definitions_raw_tbl   <- read_excel(path_data_definitions, sheet = 1, col_names = FALSE)

New names:
* `` -> `...1`
* `` -> `...2`

employee_attrition_tbl

# A tibble: 1,470 x 35
     Age Attrition BusinessTravel    DailyRate Department       DistanceFromHome
   <dbl> <chr>     <chr>                 <dbl> <chr>                       <dbl>
 1    41 Yes       Travel_Rarely          1102 Sales                           1
 2    49 No        Travel_Frequently       279 Research & Deve~                8
 3    37 Yes       Travel_Rarely          1373 Research & Deve~                2
 4    33 No        Travel_Frequently      1392 Research & Deve~                3
 5    27 No        Travel_Rarely           591 Research & Deve~                2
 6    32 No        Travel_Frequently      1005 Research & Deve~                2
 7    59 No        Travel_Rarely          1324 Research & Deve~                3
 8    30 No        Travel_Rarely          1358 Research & Deve~               24
 9    38 No        Travel_Frequently       216 Research & Deve~               23
10    36 No        Travel_Rarely          1299 Research & Deve~               27
# i 1,460 more rows
# i 29 more variables: Education <dbl>, EducationField <chr>,
#   EmployeeCount <dbl>, EmployeeNumber <dbl>, EnvironmentSatisfaction <dbl>,
#   Gender <chr>, HourlyRate <dbl>, JobInvolvement <dbl>, JobLevel <dbl>,
#   JobRole <chr>, JobSatisfaction <dbl>, MaritalStatus <chr>,
#   MonthlyIncome <dbl>, MonthlyRate <dbl>, NumCompaniesWorked <dbl>,
#   Over18 <chr>, OverTime <chr>, PercentSalaryHike <dbl>, ...

# Descriptive Features
employee_attrition_tbl %>% select(Age, DistanceFromHome, Gender, MaritalStatus, NumCompaniesWorked, Over18)

# A tibble: 1,470 x 6
     Age DistanceFromHome Gender MaritalStatus NumCompaniesWorked Over18
   <dbl>            <dbl> <chr>  <chr>                      <dbl> <chr> 
 1    41                1 Female Single                         8 Y     
 2    49                8 Male   Married                        1 Y     
 3    37                2 Male   Single                         6 Y     
 4    33                3 Female Married                        1 Y     
 5    27                2 Male   Married                        9 Y     
 6    32                2 Male   Single                         0 Y     
 7    59                3 Female Married                        4 Y     
 8    30               24 Male   Divorced                       1 Y     
 9    38               23 Male   Single                         0 Y     
10    36               27 Male   Married                        6 Y     
# i 1,460 more rows

# Employment Features
employee_attrition_tbl %>% select(Department, EmployeeCount, EmployeeNumber, JobInvolvement, JobLevel, JobRole, JobSatisfaction)

# A tibble: 1,470 x 7
   Department       EmployeeCount EmployeeNumber JobInvolvement JobLevel JobRole
   <chr>                    <dbl>          <dbl>          <dbl>    <dbl> <chr>  
 1 Sales                        1              1              3        2 Sales ~
 2 Research & Deve~             1              2              2        2 Resear~
 3 Research & Deve~             1              4              2        1 Labora~
 4 Research & Deve~             1              5              3        1 Resear~
 5 Research & Deve~             1              7              3        1 Labora~
 6 Research & Deve~             1              8              3        1 Labora~
 7 Research & Deve~             1             10              4        1 Labora~
 8 Research & Deve~             1             11              3        1 Labora~
 9 Research & Deve~             1             12              2        3 Manufa~
10 Research & Deve~             1             13              3        2 Health~
# i 1,460 more rows
# i 1 more variable: JobSatisfaction <dbl>

# Compensation Features
employee_attrition_tbl %>% select(DailyRate, HourlyRate, MonthlyIncome, MonthlyRate, PercentSalaryHike, StockOptionLevel)

# A tibble: 1,470 x 6
   DailyRate HourlyRate MonthlyIncome MonthlyRate PercentSalaryHike
       <dbl>      <dbl>         <dbl>       <dbl>             <dbl>
 1      1102         94          5993       19479                11
 2       279         61          5130       24907                23
 3      1373         92          2090        2396                15
 4      1392         56          2909       23159                11
 5       591         40          3468       16632                12
 6      1005         79          3068       11864                13
 7      1324         81          2670        9964                20
 8      1358         67          2693       13335                22
 9       216         44          9526        8787                21
10      1299         94          5237       16577                13
# i 1,460 more rows
# i 1 more variable: StockOptionLevel <dbl>

# Survery Results
employee_attrition_tbl %>% select(EnvironmentSatisfaction, JobSatisfaction, RelationshipSatisfaction, WorkLifeBalance)

# A tibble: 1,470 x 4
   EnvironmentSatisfact~1 JobSatisfaction RelationshipSatisfac~2 WorkLifeBalance
                    <dbl>           <dbl>                  <dbl>           <dbl>
 1                      2               4                      1               1
 2                      3               2                      4               3
 3                      4               3                      2               3
 4                      4               3                      3               3
 5                      1               2                      4               3
 6                      4               4                      3               2
 7                      3               1                      1               2
 8                      4               3                      2               3
 9                      4               3                      2               3
10                      3               3                      2               2
# i 1,460 more rows
# i abbreviated names: 1: EnvironmentSatisfaction, 2: RelationshipSatisfaction

# Performance Data
employee_attrition_tbl %>% select(JobInvolvement, PerformanceRating)

# A tibble: 1,470 x 2
   JobInvolvement PerformanceRating
            <dbl>             <dbl>
 1              3                 3
 2              2                 4
 3              2                 3
 4              3                 3
 5              3                 3
 6              3                 3
 7              4                 4
 8              3                 4
 9              2                 4
10              3                 3
# i 1,460 more rows

# Work-Life Features
employee_attrition_tbl %>% select(BusinessTravel, OverTime)

# A tibble: 1,470 x 2
   BusinessTravel    OverTime
   <chr>             <chr>   
 1 Travel_Rarely     Yes     
 2 Travel_Frequently No      
 3 Travel_Rarely     Yes     
 4 Travel_Frequently Yes     
 5 Travel_Rarely     No      
 6 Travel_Frequently No      
 7 Travel_Rarely     Yes     
 8 Travel_Rarely     No      
 9 Travel_Frequently No      
10 Travel_Rarely     No      
# i 1,460 more rows

# Training & Education
employee_attrition_tbl %>% select(Education, EducationField, TrainingTimesLastYear)

# A tibble: 1,470 x 3
   Education EducationField TrainingTimesLastYear
       <dbl> <chr>                          <dbl>
 1         2 Life Sciences                      0
 2         1 Life Sciences                      3
 3         2 Other                              3
 4         4 Life Sciences                      3
 5         1 Medical                            3
 6         2 Life Sciences                      2
 7         3 Medical                            3
 8         1 Life Sciences                      2
 9         3 Life Sciences                      2
10         3 Medical                            3
# i 1,460 more rows

# Time-Based Features
employee_attrition_tbl %>% select(TotalWorkingYears, YearsAtCompany, YearsInCurrentRole, YearsSinceLastPromotion, YearsWithCurrManager)

# A tibble: 1,470 x 5
   TotalWorkingYears YearsAtCompany YearsInCurrentRole YearsSinceLastPromotion
               <dbl>          <dbl>              <dbl>                   <dbl>
 1                 8              6                  4                       0
 2                10             10                  7                       1
 3                 7              0                  0                       0
 4                 8              8                  7                       3
 5                 6              2                  2                       2
 6                 8              7                  7                       3
 7                12              1                  0                       0
 8                 1              1                  0                       0
 9                10              9                  7                       1
10                17              7                  7                       7
# i 1,460 more rows
# i 1 more variable: YearsWithCurrManager <dbl>
…
# Data preparation ----
# Human readable

definitions_tbl <- definitions_raw_tbl %>% 
  fill(...1, .direction = "down") %>%
  filter(!is.na(...2)) %>%
  separate(...2, into = c("key", "value"), sep = " '", remove = TRUE) %>%
  rename(column_name = ...1) %>%
  mutate(key = as.numeric(key)) %>%
  mutate(value = value %>% str_replace(pattern = "'", replacement = "")) 
definitions_tbl

# A tibble: 29 x 3
   column_name               key value        
   <chr>                   <dbl> <chr>        
 1 Education                   1 Below College
 2 Education                   2 College      
 3 Education                   3 Bachelor     
 4 Education                   4 Master       
 5 Education                   5 Doctor       
 6 EnvironmentSatisfaction     1 Low          
 7 EnvironmentSatisfaction     2 Medium       
 8 EnvironmentSatisfaction     3 High         
 9 EnvironmentSatisfaction     4 Very High    
10 JobInvolvement              1 Low          
# i 19 more rows
…
        # Resort
        select(sort(names(.)))

Joining with `by = join_by(Education)`
Joining with `by = join_by(EnvironmentSatisfaction)`
Joining with `by = join_by(JobInvolvement)`
Joining with `by = join_by(JobSatisfaction)`
Joining with `by = join_by(PerformanceRating)`
Joining with `by = join_by(RelationshipSatisfaction)`
Joining with `by = join_by(WorkLifeBalance)`

data_merged_tbl

# A tibble: 1,470 x 35
     Age Attrition BusinessTravel    DailyRate Department       DistanceFromHome
   <dbl> <chr>     <chr>                 <dbl> <chr>                       <dbl>
 1    41 Yes       Travel_Rarely          1102 Sales                           1
 2    49 No        Travel_Frequently       279 Research & Deve~                8
 3    37 Yes       Travel_Rarely          1373 Research & Deve~                2
 4    33 No        Travel_Frequently      1392 Research & Deve~                3
 5    27 No        Travel_Rarely           591 Research & Deve~                2
 6    32 No        Travel_Frequently      1005 Research & Deve~                2
 7    59 No        Travel_Rarely          1324 Research & Deve~                3
 8    30 No        Travel_Rarely          1358 Research & Deve~               24
 9    38 No        Travel_Frequently       216 Research & Deve~               23
10    36 No        Travel_Rarely          1299 Research & Deve~               27
# i 1,460 more rows
# i 29 more variables: Education <fct>, EducationField <chr>,
#   EmployeeCount <dbl>, EmployeeNumber <dbl>, EnvironmentSatisfaction <fct>,
#   Gender <chr>, HourlyRate <dbl>, JobInvolvement <fct>, JobLevel <dbl>,
#   JobRole <chr>, JobSatisfaction <fct>, MaritalStatus <chr>,
#   MonthlyIncome <dbl>, MonthlyRate <dbl>, NumCompaniesWorked <dbl>,
#   Over18 <chr>, OverTime <chr>, PercentSalaryHike <dbl>, ...
…
