MyLabJournal - Explaining Black-Box Models With LIME
…
  |                                                                            
  |                                                                      |   0%
  |                                                                            
  |======================================================================| 100%

  |                                                                            
  |                                                                      |   0%
  |                                                                            
  |======================================================================| 100%

predictions_tbl

# A tibble: 221 x 5
   predict    No    Yes Attrition EmployeeNumber
   <fct>   <dbl>  <dbl> <fct>              <dbl>
 1 Yes     0.478 0.522  No                    10
 2 No      0.891 0.109  No                    16
 3 No      0.804 0.196  No                    30
 4 No      0.913 0.0870 Yes                   31
 5 No      0.957 0.0435 No                    40
 6 Yes     0.717 0.283  Yes                   42
 7 No      0.957 0.0435 No                    46
 8 Yes     0.609 0.391  Yes                   55
 9 Yes     0.630 0.370  Yes                   64
10 No      1     0      No                    77
# i 211 more rows
…
  |                                                                            
  |                                                                      |   0%
  |                                                                            
  |======================================================================| 100%

  |                                                                            
  |                                                                      |   0%
  |                                                                            
  |======================================================================| 100%

explanation %>%
    as.tibble()

# A tibble: 160 x 13
   model_type   case  label label_prob model_r2 model_intercept model_prediction
   <chr>        <chr> <chr>      <dbl>    <dbl>           <dbl>            <dbl>
 1 classificat~ 1     Yes        0.522    0.321           0.134            0.392
 2 classificat~ 1     Yes        0.522    0.321           0.134            0.392
 3 classificat~ 1     Yes        0.522    0.321           0.134            0.392
 4 classificat~ 1     Yes        0.522    0.321           0.134            0.392
 5 classificat~ 1     Yes        0.522    0.321           0.134            0.392
 6 classificat~ 1     Yes        0.522    0.321           0.134            0.392
 7 classificat~ 1     Yes        0.522    0.321           0.134            0.392
 8 classificat~ 1     Yes        0.522    0.321           0.134            0.392
 9 classificat~ 2     No         0.891    0.329           0.747            0.782
10 classificat~ 2     No         0.891    0.329           0.747            0.782
# i 150 more rows
# i 6 more variables: feature <chr>, feature_value <dbl>, feature_weight <dbl>,
#   feature_desc <chr>, data <list>, prediction <list>
…
Challenge

Part 1

library(ggplot2)

explanation %>% as.tibble()

Warning: `as.tibble()` was deprecated in tibble 2.0.0.
i Please use `as_tibble()` instead.
i The signature and semantics have changed, see `?as_tibble`.

# A tibble: 160 x 13
   model_type   case  label label_prob model_r2 model_intercept model_prediction
   <chr>        <chr> <chr>      <dbl>    <dbl>           <dbl>            <dbl>
 1 classificat~ 1     Yes        0.522    0.321           0.134            0.392
 2 classificat~ 1     Yes        0.522    0.321           0.134            0.392
 3 classificat~ 1     Yes        0.522    0.321           0.134            0.392
 4 classificat~ 1     Yes        0.522    0.321           0.134            0.392
 5 classificat~ 1     Yes        0.522    0.321           0.134            0.392
 6 classificat~ 1     Yes        0.522    0.321           0.134            0.392
 7 classificat~ 1     Yes        0.522    0.321           0.134            0.392
 8 classificat~ 1     Yes        0.522    0.321           0.134            0.392
 9 classificat~ 2     No         0.891    0.329           0.747            0.782
10 classificat~ 2     No         0.891    0.329           0.747            0.782
# i 150 more rows
# i 6 more variables: feature <chr>, feature_value <dbl>, feature_weight <dbl>,
#   feature_desc <chr>, data <list>, prediction <list>
…
